\relax 
\@writefile{toc}{\contentsline {section}{\numberline {1}Usage}{1}}
\@writefile{toc}{\contentsline {subsection}{\numberline {1.1}Script file}{1}}
\@writefile{toc}{\contentsline {subsection}{\numberline {1.2}Interactive mode}{1}}
\@writefile{toc}{\contentsline {subsection}{\numberline {1.3}Using inside T\kern -.1667em\lower .5ex\hbox {E}\kern -.125emX\spacefactor \@m {}}{1}}
\@writefile{toc}{\contentsline {subsubsection}{\numberline {1.3.1}Importing a file}{1}}
